INDEX VERSION 1.3+/home/alumno/workspace/.metadata/.plugins/org.eclipse.wst.jsdt.core/indexes
517212914.index
2350626206.index
3300537532.index
2098333309.index
2629509415.index
3770927812.index
732559008.index
2329435018.index
3828154371.index
