127.0.0.1 - - [19/Oct/2018:15:20:15 +0200] "GET /Javaee/login.html HTTP/1.1" 200 389
127.0.0.1 - - [19/Oct/2018:15:20:53 +0200] "GET /Javaee/login.html HTTP/1.1" 200 607
127.0.0.1 - - [19/Oct/2018:15:20:53 +0200] "GET /Javaee/login.html HTTP/1.1" 304 -
127.0.0.1 - - [19/Oct/2018:15:20:53 +0200] "GET /Javaee/login.html HTTP/1.1" 304 -
127.0.0.1 - - [19/Oct/2018:15:20:53 +0200] "GET /Javaee/login.html HTTP/1.1" 304 -
127.0.0.1 - - [19/Oct/2018:15:21:02 +0200] "POST /Javaee/login HTTP/1.1" 200 88
127.0.0.1 - - [19/Oct/2018:15:22:34 +0200] "POST /Javaee/login HTTP/1.1" 200 88
127.0.0.1 - - [19/Oct/2018:15:22:36 +0200] "POST /Javaee/login HTTP/1.1" 200 88
127.0.0.1 - - [19/Oct/2018:15:22:40 +0200] "GET /Javaee/login.html HTTP/1.1" 304 -
127.0.0.1 - - [19/Oct/2018:15:22:43 +0200] "POST /Javaee/login HTTP/1.1" 200 78
127.0.0.1 - - [19/Oct/2018:15:23:01 +0200] "POST /Javaee/login HTTP/1.1" 200 78
127.0.0.1 - - [19/Oct/2018:15:23:02 +0200] "POST /Javaee/login HTTP/1.1" 200 78
127.0.0.1 - - [19/Oct/2018:15:24:26 +0200] "POST /Javaee/login HTTP/1.1" 200 94
127.0.0.1 - - [19/Oct/2018:15:24:29 +0200] "POST /Javaee/login HTTP/1.1" 200 94
127.0.0.1 - - [19/Oct/2018:15:24:30 +0200] "POST /Javaee/login HTTP/1.1" 200 94
127.0.0.1 - - [19/Oct/2018:15:24:35 +0200] "GET /Javaee/login.html HTTP/1.1" 304 -
127.0.0.1 - - [19/Oct/2018:15:24:39 +0200] "POST /Javaee/login HTTP/1.1" 200 81
127.0.0.1 - - [19/Oct/2018:15:24:41 +0200] "POST /Javaee/login HTTP/1.1" 200 94
127.0.0.1 - - [19/Oct/2018:15:24:45 +0200] "POST /Javaee/login HTTP/1.1" 500 45
127.0.0.1 - - [19/Oct/2018:15:27:10 +0200] "GET /Javaee/login.html HTTP/1.1" 304 -
127.0.0.1 - - [19/Oct/2018:15:27:11 +0200] "GET /Javaee/login.html HTTP/1.1" 304 -
127.0.0.1 - - [19/Oct/2018:15:27:11 +0200] "GET /Javaee/login.html HTTP/1.1" 304 -
127.0.0.1 - - [19/Oct/2018:15:27:13 +0200] "POST /Javaee/login HTTP/1.1" 200 70
127.0.0.1 - - [19/Oct/2018:15:27:30 +0200] "POST /Javaee/login HTTP/1.1" 200 70
127.0.0.1 - - [19/Oct/2018:15:27:35 +0200] "POST /Javaee/login HTTP/1.1" 200 70
127.0.0.1 - - [19/Oct/2018:15:41:33 +0200] "GET /introjavaee HTTP/1.1" 404 1026
127.0.0.1 - - [19/Oct/2018:15:41:49 +0200] "GET /introjavaee/form2.html HTTP/1.1" 404 1048
127.0.0.1 - - [19/Oct/2018:15:42:50 +0200] "GET /introjavaee/form2.html HTTP/1.1" 404 1048
127.0.0.1 - - [19/Oct/2018:15:42:52 +0200] "GET /introjavaee/form2.html HTTP/1.1" 404 1048
127.0.0.1 - - [19/Oct/2018:15:42:52 +0200] "GET /introjavaee/form2.html HTTP/1.1" 404 1048
127.0.0.1 - - [19/Oct/2018:15:42:52 +0200] "GET /introjavaee/form2.html HTTP/1.1" 404 1048
127.0.0.1 - - [19/Oct/2018:16:01:18 +0200] "GET / HTTP/1.1" 404 1004
127.0.0.1 - - [19/Oct/2018:16:01:19 +0200] "GET /introjavaee/form1.html HTTP/1.1" 200 347
127.0.0.1 - - [19/Oct/2018:16:01:19 +0200] "GET /favicon.ico HTTP/1.1" 404 1026
127.0.0.1 - - [19/Oct/2018:16:01:19 +0200] "GET /favicon.ico HTTP/1.1" 404 1026
127.0.0.1 - - [19/Oct/2018:16:01:25 +0200] "GET /introjavaee/session1?name=aaaa&surname=b HTTP/1.1" 200 107
127.0.0.1 - - [19/Oct/2018:16:01:49 +0200] "GET /introjavaee/form2.html HTTP/1.1" 200 427
127.0.0.1 - - [19/Oct/2018:16:01:55 +0200] "GET /introjavaee/session2?name=d&code=fd&price=12 HTTP/1.1" 200 67
127.0.0.1 - - [19/Oct/2018:16:15:38 +0200] "GET /introjavaee/form1.html HTTP/1.1" 200 493
127.0.0.1 - - [19/Oct/2018:16:15:45 +0200] "GET /introjavaee/session1?name=a&surname=a&edad=12&postal=1234 HTTP/1.1" 200 166
127.0.0.1 - - [19/Oct/2018:16:18:38 +0200] "GET /introjavaee/form1.html HTTP/1.1" 200 511
127.0.0.1 - - [19/Oct/2018:16:18:49 +0200] "GET /introjavaee/session1?name=a&surname=a&edad=12&postal=5630 HTTP/1.1" 200 166
0:0:0:0:0:0:0:1 - - [19/Oct/2018:16:21:53 +0200] "GET /introjavaee/form1.html HTTP/1.1" 200 511
0:0:0:0:0:0:0:1 - - [19/Oct/2018:16:21:53 +0200] "GET /favicon.ico HTTP/1.1" 404 1026
0:0:0:0:0:0:0:1 - - [19/Oct/2018:16:22:00 +0200] "GET /introjavaee/session1?name=a&surname=a&edad=12&postal=121212122 HTTP/1.1" 200 137
127.0.0.1 - - [19/Oct/2018:16:22:08 +0200] "GET /introjavaee/session1?name=a&surname=a&edad=12&postal=5630 HTTP/1.1" 200 166
127.0.0.1 - - [19/Oct/2018:16:25:11 +0200] "GET /introjavaee HTTP/1.1" 302 -
127.0.0.1 - - [19/Oct/2018:16:25:11 +0200] "GET /introjavaee/ HTTP/1.1" 200 301
127.0.0.1 - - [19/Oct/2018:16:25:13 +0200] "GET /introjavaee/form1.html HTTP/1.1" 304 -
127.0.0.1 - - [19/Oct/2018:16:25:21 +0200] "GET /introjavaee/session1?name=a&surname=a&edad=12&postal=50630 HTTP/1.1" 200 133
127.0.0.1 - - [19/Oct/2018:16:26:28 +0200] "GET /introjavaee/session1?name=a&surname=a&edad=12&postal=50630 HTTP/1.1" 200 133
127.0.0.1 - - [19/Oct/2018:16:27:48 +0200] "GET /introjavaee/session1?name=a&surname=a&edad=12&postal=50630 HTTP/1.1" 200 133
127.0.0.1 - - [19/Oct/2018:16:27:49 +0200] "GET /introjavaee/session1?name=a&surname=a&edad=12&postal=50630 HTTP/1.1" 200 133
127.0.0.1 - - [19/Oct/2018:16:27:50 +0200] "GET /introjavaee/session1?name=a&surname=a&edad=12&postal=50630 HTTP/1.1" 200 133
127.0.0.1 - - [19/Oct/2018:16:27:50 +0200] "GET /introjavaee/session1?name=a&surname=a&edad=12&postal=50630 HTTP/1.1" 200 133
127.0.0.1 - - [19/Oct/2018:16:27:50 +0200] "GET /introjavaee/session1?name=a&surname=a&edad=12&postal=50630 HTTP/1.1" 200 133
127.0.0.1 - - [19/Oct/2018:16:27:51 +0200] "GET /introjavaee/session1?name=a&surname=a&edad=12&postal=50630 HTTP/1.1" 200 133
127.0.0.1 - - [19/Oct/2018:16:29:52 +0200] "GET /introjavaee/session1 HTTP/1.1" 200 79
127.0.0.1 - - [19/Oct/2018:16:29:59 +0200] "GET /introjavaee/ HTTP/1.1" 304 -
127.0.0.1 - - [19/Oct/2018:16:30:01 +0200] "GET /introjavaee/form1.html HTTP/1.1" 304 -
127.0.0.1 - - [19/Oct/2018:16:30:13 +0200] "GET /introjavaee/session1?name=a&surname=a&edad=1&postal=2 HTTP/1.1" 200 128
127.0.0.1 - - [19/Oct/2018:16:31:26 +0200] "GET /introjavaee/session2 HTTP/1.1" 500 1678
127.0.0.1 - - [19/Oct/2018:16:31:30 +0200] "GET /introjavaee HTTP/1.1" 302 -
127.0.0.1 - - [19/Oct/2018:16:31:31 +0200] "GET /introjavaee/form2.html HTTP/1.1" 304 -
127.0.0.1 - - [19/Oct/2018:16:31:39 +0200] "GET /introjavaee/session2?name=diogo&code=0&price=0 HTTP/1.1" 200 69
127.0.0.1 - - [19/Oct/2018:16:31:46 +0200] "GET /introjavaee/session2?name=diogo&code=1&price=ss HTTP/1.1" 200 114
127.0.0.1 - - [19/Oct/2018:16:31:49 +0200] "GET /introjavaee/session2?name=diogo&code=1&price=ss HTTP/1.1" 200 159
127.0.0.1 - - [19/Oct/2018:16:31:50 +0200] "GET /introjavaee/session2?name=diogo&code=1&price=ss HTTP/1.1" 200 204
127.0.0.1 - - [19/Oct/2018:16:31:50 +0200] "GET /introjavaee/session2?name=diogo&code=1&price=ss HTTP/1.1" 200 249
127.0.0.1 - - [19/Oct/2018:16:31:51 +0200] "GET /introjavaee/session2?name=diogo&code=1&price=ss HTTP/1.1" 200 294
127.0.0.1 - - [19/Oct/2018:16:31:51 +0200] "GET /introjavaee/session2?name=diogo&code=1&price=ss HTTP/1.1" 200 339
127.0.0.1 - - [19/Oct/2018:16:31:51 +0200] "GET /introjavaee/session2?name=diogo&code=1&price=ss HTTP/1.1" 200 384
127.0.0.1 - - [19/Oct/2018:16:31:52 +0200] "GET /introjavaee/session2?name=diogo&code=1&price=ss HTTP/1.1" 200 429
127.0.0.1 - - [19/Oct/2018:16:31:52 +0200] "GET /introjavaee/session2?name=diogo&code=1&price=ss HTTP/1.1" 200 474
127.0.0.1 - - [19/Oct/2018:16:31:53 +0200] "GET /introjavaee/session2?name=diogo&code=1&price=ss HTTP/1.1" 200 519
127.0.0.1 - - [19/Oct/2018:16:31:53 +0200] "GET /introjavaee/session2?name=diogo&code=1&price=ss HTTP/1.1" 200 564
127.0.0.1 - - [19/Oct/2018:16:31:53 +0200] "GET /introjavaee/session2?name=diogo&code=1&price=ss HTTP/1.1" 200 609
127.0.0.1 - - [19/Oct/2018:16:31:53 +0200] "GET /introjavaee/session2?name=diogo&code=1&price=ss HTTP/1.1" 200 654
127.0.0.1 - - [19/Oct/2018:16:31:54 +0200] "GET /introjavaee/session2?name=diogo&code=1&price=ss HTTP/1.1" 200 699
127.0.0.1 - - [19/Oct/2018:16:31:54 +0200] "GET /introjavaee/session2?name=diogo&code=1&price=ss HTTP/1.1" 200 744
127.0.0.1 - - [19/Oct/2018:16:31:54 +0200] "GET /introjavaee/session2?name=diogo&code=1&price=ss HTTP/1.1" 200 789
127.0.0.1 - - [19/Oct/2018:16:31:55 +0200] "GET /introjavaee/session2?name=diogo&code=1&price=ss HTTP/1.1" 200 834
127.0.0.1 - - [19/Oct/2018:16:32:40 +0200] "GET /introjavaee/session2?name=sdfjkdfjk&code=1224&price=ss HTTP/1.1" 200 886
127.0.0.1 - - [19/Oct/2018:16:33:07 +0200] "GET /introjavaee/session2?name=alberto900&code=589&price=787678 HTTP/1.1" 200 943
127.0.0.1 - - [19/Oct/2018:16:52:05 +0200] "GET /introjavaee/ HTTP/1.1" 304 -
127.0.0.1 - - [19/Oct/2018:16:52:06 +0200] "GET /introjavaee/FinSession HTTP/1.1" 302 -
127.0.0.1 - - [19/Oct/2018:16:52:08 +0200] "GET /introjavaee/form2.html HTTP/1.1" 304 -
127.0.0.1 - - [19/Oct/2018:16:52:09 +0200] "GET /introjavaee/session2?name=&code=&price= HTTP/1.1" 200 63
127.0.0.1 - - [19/Oct/2018:16:52:12 +0200] "GET /introjavaee/form1.html HTTP/1.1" 200 507
127.0.0.1 - - [19/Oct/2018:16:52:21 +0200] "GET /introjavaee/session1?name=aaaa&surname=d&edad=12&postal=1332 HTTP/1.1" 200 169
127.0.0.1 - - [19/Oct/2018:16:52:32 +0200] "GET /introjavaee/FinSession HTTP/1.1" 302 -
127.0.0.1 - - [19/Oct/2018:16:52:33 +0200] "GET /introjavaee/form1.html HTTP/1.1" 304 -
127.0.0.1 - - [19/Oct/2018:16:52:37 +0200] "GET /introjavaee/session1?name=gf&surname=gg&edad=&postal= HTTP/1.1" 500 1757
127.0.0.1 - - [19/Oct/2018:16:52:42 +0200] "GET /introjavaee/session1?name=gf&surname=gg&edad=&postal= HTTP/1.1" 500 1757
127.0.0.1 - - [19/Oct/2018:16:52:46 +0200] "GET /introjavaee/session1?name=gf&surname=gg&edad=1&postal=1 HTTP/1.1" 200 130
